Applying KMeans model.
Time taken to apply KMeans model is 0:00:00.398023
--------------------------------------------------
Applying HCiS model.
Time taken to apply HCiS model is 0:00:01.772101
--------------------------------------------------
Applying LOF_mv model.
Time taken to apply LOF_mv model is 0:10:31.927145
--------------------------------------------------
Applying KMeans model.
Time taken to apply KMeans model is 0:00:00.286014
--------------------------------------------------
Applying LOF_mv model.
Time taken to apply LOF_mv model is 0:14:57.988362
--------------------------------------------------
Applying HCiS model.
Time taken to apply HCiS model is 0:00:05.240300
--------------------------------------------------
Applying KMeans model.
Time taken to apply KMeans model is 0:00:00.509029
--------------------------------------------------
Applying LOF_mv model.
Time taken to apply LOF_mv model is 0:16:05.564227
--------------------------------------------------
Applying HCiS model.
Time taken to apply HCiS model is 0:00:02.690153
--------------------------------------------------
Applying LOF_mv model.
Time taken to apply LOF_mv model is 0:52:55.375860
--------------------------------------------------
Applying HCiS model.
Time taken to apply HCiS model is 0:00:01.445004
--------------------------------------------------
Applying KMeans model.
Time taken to apply KMeans model is 0:00:00.330000
--------------------------------------------------
{'esu3v374':                           HCiS  LOF_mv_score  KMeans_score
timestamp                                                 
2016-07-13 23:59:32        NaN           NaN           NaN
2016-07-13 00:00:32   0.000000      4.940556     82.975604
2016-07-13 00:01:32   2.065027      6.062105     80.670825
2016-07-13 00:02:32   1.720848      6.923400     81.497081
2016-07-13 00:03:32   2.836820      7.603884     81.425337
2016-07-13 00:04:32   1.989045      8.263853     79.719828
2016-07-13 00:05:32   2.275162      9.629136     80.943872
2016-07-13 00:06:32   2.989078     11.314289     78.781681
2016-07-13 00:07:32   5.912010      7.986829     75.256639
2016-07-13 00:08:32   5.174298      5.200832     74.609748
2016-07-13 00:09:32   2.061871      9.776861     82.413903
2016-07-13 00:10:32   2.580377      9.398451     82.101713
2016-07-13 00:11:32   2.301545      8.946355     81.838403
2016-07-13 00:12:32   3.020405      8.717101     79.909296
2016-07-13 00:13:32   3.441527     12.013819     81.571082
2016-07-13 00:14:32   9.888584     11.011500     76.827590
2016-07-13 00:15:32   2.561578      8.367724     81.113907
2016-07-13 00:16:32   2.770678     13.473997     78.008671
2016-07-13 00:17:32   2.899726     10.021607     81.008430
2016-07-13 00:18:32   7.666458      9.491146     80.885195
2016-07-13 00:19:32   4.093491     12.198162     80.772084
2016-07-13 00:20:32   1.974698      8.909666     81.207554
2016-07-13 00:21:32  15.170192     14.042564     75.577023
2016-07-13 00:22:32  15.795833     11.191676     67.517264
2016-07-13 00:23:32   2.033979      8.812191     81.065749
2016-07-13 00:24:32   2.585087      8.958878     77.547351
2016-07-13 00:25:32   7.095649      9.867058     81.038110
2016-07-13 00:26:32   2.545939      8.882609     76.800805
2016-07-13 00:27:32   2.901401      9.017874     81.039163
2016-07-13 00:28:32   2.983720      7.927196     81.566805
...                        ...           ...           ...
2016-07-13 06:42:11   4.555318     12.848058     67.994246
2016-07-13 06:43:11   3.716462      8.729415     68.070206
2016-07-13 06:44:11   3.950869     10.792590     68.870931
2016-07-13 06:45:11   3.943096      8.694279     70.494535
2016-07-13 06:46:11   5.153936     12.903287     69.953893
2016-07-13 06:47:11   4.746863     10.251760     71.851555
2016-07-13 06:48:11   4.287238     10.835165     67.770475
2016-07-13 06:49:11   5.107243     11.260724     67.801510
2016-07-13 06:50:11   4.626274     11.313394     68.730288
2016-07-13 06:51:11   4.554464      9.562573     68.358824
2016-07-13 06:52:11   3.723331      8.740489     68.200612
2016-07-13 06:53:11   5.184855     10.779771     68.330828
2016-07-13 06:54:11   3.989930      9.678026     68.267573
2016-07-13 06:55:11   4.266135      9.795707     69.129610
2016-07-13 06:56:11   4.640436     12.034698     69.537750
2016-07-13 06:57:11   5.969765     13.754230     69.878941
2016-07-13 06:58:11   3.973689      9.951541     69.783676
2016-07-13 06:59:11   4.166104      8.453748     70.514971
2016-07-13 07:00:11   4.664245     13.151841     70.927637
2016-07-13 07:01:11   4.079126     12.113399     70.367610
2016-07-13 07:02:11   4.323071      8.446684     71.184071
2016-07-13 07:03:11   4.519846      8.703781     71.242614
2016-07-13 07:04:11  22.188055      9.326330     72.426286
2016-07-13 07:05:11  31.950494     10.436275     74.902690
2016-07-13 07:06:11  47.030669     10.379754     75.351136
2016-07-13 07:07:11  31.510478     10.408589     74.832208
2016-07-13 07:08:11  32.855526     10.432200     75.355695
2016-07-13 07:09:11  33.548358     21.869450     73.282933
2016-07-13 07:10:11  41.025135     10.531126     75.515089
2016-07-13 07:11:11  31.286876     10.375473     74.916863

[432 rows x 3 columns], 'esu3v102':                          HCiS  LOF_mv_score  KMeans_score
timestamp                                                
2016-07-13 23:59:33       NaN           NaN           NaN
2016-07-13 00:00:33  0.000000      4.366263     45.099313
2016-07-13 00:01:33  0.535386      4.851831     45.564549
2016-07-13 00:02:33  1.493890      7.911483     45.367705
2016-07-13 00:03:33  1.606548      5.475421     45.472329
2016-07-13 00:04:33  2.088904      4.973665     46.048960
2016-07-13 00:05:33  0.998454     10.572542     46.585510
2016-07-13 00:06:33  1.190565      4.435461     45.854383
2016-07-13 00:07:33  1.239258      4.246010     47.485954
2016-07-13 00:08:33  1.878483      4.547936     47.505113
2016-07-13 00:09:33  1.272192      4.476838     47.155894
2016-07-13 00:10:33  1.514322      5.417176     45.875932
2016-07-13 00:11:33  1.355904      4.641535     47.417239
2016-07-13 00:12:33  3.679262      0.644279     48.841687
2016-07-13 00:13:33  3.088007     12.122110     47.843137
2016-07-13 00:14:33  1.885354      5.958899     45.786719
2016-07-13 00:15:33  3.241997      6.414546     46.677522
2016-07-13 00:16:33  1.359049      5.548903     46.037057
2016-07-13 00:17:33  1.308107      5.512755     48.436119
2016-07-13 00:18:33  3.224768      5.795749     48.437315
2016-07-13 00:19:33  1.552102      5.343716     48.415553
2016-07-13 00:20:33  6.531275     19.892723     42.044759
2016-07-13 00:21:33  1.668193      9.934189     47.900403
2016-07-13 00:22:33  1.180616      5.383752     48.996320
2016-07-13 00:23:33  1.168964      5.201694     48.428342
2016-07-13 00:24:33  2.279792     11.443092     47.010241
2016-07-13 00:25:33  1.505667      5.542667     48.607804
2016-07-13 00:26:33  4.646049      8.239100     58.428837
2016-07-13 00:27:33  1.985011      5.640711     58.660038
2016-07-13 00:28:33  3.237483      5.093059     47.144990
...                       ...           ...           ...
2016-07-13 23:29:24  2.944577      6.930397     53.196170
2016-07-13 23:30:24  2.994072      6.719434     53.426108
2016-07-13 23:31:24  2.967606      6.877529     52.895783
2016-07-13 23:32:24  3.289385      6.794767     52.868538
2016-07-13 23:33:24  3.074044      8.547316     52.228756
2016-07-13 23:34:24  2.920141      6.718927     52.251916
2016-07-13 23:35:24  2.940527      6.807744     53.160885
2016-07-13 23:36:24  2.937159      6.392321     52.047316
2016-07-13 23:37:24  2.922181      6.323348     51.322479
2016-07-13 23:38:24  2.935942      6.524894     51.150268
2016-07-13 23:39:24  2.955110      6.961527     50.898445
2016-07-13 23:40:24  2.964283      6.817787     52.677410
2016-07-13 23:41:24  3.025391      6.984279     52.914897
2016-07-13 23:42:24  3.243619      7.121767     53.190988
2016-07-13 23:43:24  2.914836      6.497704     53.149137
2016-07-13 23:44:25  3.140034      6.947033     53.115752
2016-07-13 23:45:25  2.967965      6.553419     52.878662
2016-07-13 23:46:25  2.910799      6.403657     53.044020
2016-07-13 23:47:25  2.917978      6.954513     52.861123
2016-07-13 23:48:25  3.030641      6.366730     53.366144
2016-07-13 23:49:25  2.928665      6.639595     52.214797
2016-07-13 23:50:25  2.998114      7.195846     51.677929
2016-07-13 23:51:25  2.957385      6.594955     53.137968
2016-07-13 23:52:25  2.980426      7.075257     52.861526
2016-07-13 23:53:25  2.953174      6.578749     52.845418
2016-07-13 23:54:25  3.069096      6.605126     53.177950
2016-07-13 23:55:25  3.125084      8.024039     52.684957
2016-07-13 23:56:25  2.946660      6.424099     53.042490
2016-07-13 23:57:25  3.005164      6.771322     52.888189
2016-07-13 23:58:25  3.039542      7.153832     52.797323

[1439 rows x 3 columns], 'esu3v381':                           HCiS  LOF_mv_score  KMeans_score
timestamp                                                 
2016-07-13 03:40:56        NaN           NaN           NaN
2016-07-13 03:41:56   0.000000     18.888897      6.090787
2016-07-13 03:42:56   3.386499     23.299085      6.838491
2016-07-13 03:43:56   6.683613     23.776420     15.727470
2016-07-13 03:44:57   7.486022     23.541400      9.094249
2016-07-13 03:45:57  14.034975     34.690455     19.439547
2016-07-13 03:46:57   4.329978     21.354494     12.481051
2016-07-13 03:47:57   7.135350     22.901081      8.838171
2016-07-13 03:48:57   6.957149     23.770117      5.412836
2016-07-13 03:49:57   7.583380     26.932804      8.611151
2016-07-13 03:50:57  10.825128     22.392920     30.296152
2016-07-13 03:51:57   8.227399     24.952057      8.799414
2016-07-13 03:52:57  13.429500     28.944185     23.361802
2016-07-13 03:53:57   8.747271     28.960264     13.395235
2016-07-13 03:54:57   9.509499     25.192444     12.764118
2016-07-13 03:55:57   8.482431     24.420132      6.300451
2016-07-13 03:56:57   8.971408     31.212563     12.260206
2016-07-13 03:57:57  12.979170     23.383260     19.901385
2016-07-13 03:58:57   9.266364     26.836147     12.323399
2016-07-13 03:59:57  16.820806     28.144486     17.607596
2016-07-13 04:00:57   6.746154     26.106565     17.637285
2016-07-13 04:01:57  10.369543     25.228793     15.420486
2016-07-13 04:02:57   9.234361     41.317206     11.500072
2016-07-13 04:03:57   9.669828     30.718916      7.997052
2016-07-13 04:04:57  14.360093     25.206430     17.355793
2016-07-13 04:05:57  22.606115     40.282351      9.334644
2016-07-13 04:06:58  19.712862     28.036552     28.061405
2016-07-13 04:07:58   6.488820     29.976796     26.995632
2016-07-13 04:08:58  10.508819     24.151478     16.239388
2016-07-13 04:09:58   9.828294     29.096630     12.800483
...                        ...           ...           ...
2016-07-13 08:11:09   6.275008     27.662302     19.423506
2016-07-13 08:12:09  10.854334     20.886612     37.013871
2016-07-13 08:13:09  10.142101     28.772601     70.150381
2016-07-13 08:14:09  18.012414     29.602824     80.103586
2016-07-13 08:15:09   8.767378     38.389131     46.826577
2016-07-13 08:16:09  20.019692     33.676098     54.232025
2016-07-13 08:17:09  14.987022     43.696990     35.657300
2016-07-13 08:18:09   9.444181     34.353071      8.801601
2016-07-13 08:19:09  43.668472     59.802618      9.522505
2016-07-13 08:20:09   9.096000     27.714943      8.252916
2016-07-13 08:21:09   7.905963     38.636909     13.529821
2016-07-13 08:22:09   8.879982     30.465980      7.421582
2016-07-13 08:23:10   8.922172     28.554546     10.749017
2016-07-13 08:24:10   6.112986     46.338390     29.680092
2016-07-13 08:25:10  12.466914     19.843914     18.451600
2016-07-13 08:26:10  24.587105     42.040765     12.450621
2016-07-13 08:27:10   8.086187     21.462626     30.555350
2016-07-13 08:28:10  11.353244     35.176810     40.890079
2016-07-13 08:29:10  16.307110     21.595779     17.126056
2016-07-13 08:30:10  20.111555     41.468651     12.612857
2016-07-13 08:31:10   9.054583     28.721460     10.391537
2016-07-13 08:32:10  10.843086     26.294256      8.696835
2016-07-13 08:33:10  54.577715     36.182795     10.314876
2016-07-13 08:34:10   7.379013     17.494853      8.398736
2016-07-13 08:35:10   5.853756     36.053825      9.972267
2016-07-13 08:36:10   8.722032     29.215123      8.220217
2016-07-13 08:37:10   7.036135     18.178424      8.039424
2016-07-13 08:38:10  10.932472     25.601598      9.315298
2016-07-13 08:39:10  10.423513     30.533474      7.768798
2016-07-13 08:40:10  45.404477     31.867496      9.285593

[300 rows x 3 columns], 'esu3v373':                           HCiS  LOF_mv_score  KMeans_score
timestamp                                                 
2016-07-13 23:59:32        NaN           NaN           NaN
2016-07-13 00:00:32   0.034886      1.900857     92.222021
2016-07-13 00:01:32   0.914275      2.664556     90.986499
2016-07-13 00:02:32   3.395134      3.546461     85.269307
2016-07-13 00:03:32   1.687728      6.147282     90.538594
2016-07-13 00:04:32   3.353369      8.590474     89.992314
2016-07-13 00:05:32   4.327381      5.138707     89.343575
2016-07-13 00:06:32   1.186466      4.539901     90.446126
2016-07-13 00:07:32   3.892382      7.069378     83.531244
2016-07-13 00:08:32   4.516403      6.423846     85.566248
2016-07-13 00:09:32   5.106559      7.136828     89.125960
2016-07-13 00:10:32   1.709403      4.320870     90.747036
2016-07-13 00:11:32   1.663978      4.399678     90.460916
2016-07-13 00:12:32   3.705915      8.586271     89.672398
2016-07-13 00:13:32   2.381192      6.885815     89.991772
2016-07-13 00:14:32   2.173102      4.788873     89.806612
2016-07-13 00:15:32   4.507996      8.814445     85.257971
2016-07-13 00:16:32   2.991089      7.165138     89.770131
2016-07-13 00:17:32   5.665321      7.230186     76.661573
2016-07-13 00:18:32   6.022750      6.921095     83.158872
2016-07-13 00:19:32   7.380537      9.170574     88.019293
2016-07-13 00:20:32   1.903443      4.640287     90.399985
2016-07-13 00:21:32   0.941344      7.055124     90.256184
2016-07-13 00:22:32   2.880584      7.840431     90.039863
2016-07-13 00:23:32   1.151527      8.146273     89.915877
2016-07-13 00:24:32   1.789321     13.039284     89.137210
2016-07-13 00:25:32   2.434025     11.060345     89.049053
2016-07-13 00:26:32  12.620259     15.684335     88.275405
2016-07-13 00:27:32   1.941611     11.359788     88.915655
2016-07-13 00:28:32   8.375235      5.543618     78.355842
...                        ...           ...           ...
2016-07-13 06:41:32   4.056565      7.131328     80.415520
2016-07-13 06:42:32   4.417206      7.753414     78.839604
2016-07-13 06:43:32   6.807494      5.544087     78.156856
2016-07-13 06:44:32   5.402900     11.674062     81.581092
2016-07-13 06:45:32   4.551014     12.787166     78.325135
2016-07-13 06:46:32   5.235219      5.782129     79.343735
2016-07-13 06:47:32   3.824605      5.685439     79.317369
2016-07-13 06:48:33  15.936348     12.929514     78.158389
2016-07-13 06:49:33   4.771829     10.933477     81.521696
2016-07-13 06:50:34   4.128788      9.586179     80.719062
2016-07-13 06:51:34   4.949971      5.912458     81.546512
2016-07-13 06:52:34   6.044451      7.339429     80.155126
2016-07-13 06:53:34   6.016235      5.711030     77.707054
2016-07-13 06:54:38   4.334113     10.435839     81.091180
2016-07-13 06:55:38   4.289480      3.346414     78.484633
2016-07-13 06:56:38   4.295013     15.421046     78.624595
2016-07-13 06:57:38   4.716844      3.338899     79.158949
2016-07-13 06:58:39   4.235734     11.840300     78.645705
2016-07-13 06:59:39   4.695181     13.773955     82.935669
2016-07-13 07:00:39   4.252550      7.147696     80.002319
2016-07-13 07:01:39   3.693802      5.715012     78.687252
2016-07-13 07:02:39   4.385307      7.332128     80.164594
2016-07-13 07:03:39   3.633006      5.339028     79.056824
2016-07-13 07:04:39  35.435090      7.722909     81.953336
2016-07-13 07:05:39  32.943899      0.000000     81.127559
2016-07-13 07:06:39  37.075234      0.021411     80.640948
2016-07-13 07:07:39  39.016014     63.776452     78.156583
2016-07-13 07:08:39  50.290538      0.144912     80.669149
2016-07-13 07:09:39  42.298561      0.165634     81.129981
2016-07-13 07:10:39  39.643530      0.186232     81.060116

[431 rows x 3 columns]}
