,id,ABOD
0,343,7.416717359132437e-14
1,1,6.115431984479015e-08
2,427,6.328258713688621e-05
3,348,0.00018806857143282353
4,316,0.00026506930852007753
5,364,0.0025861236194436783
6,160,0.0031530870346944814
7,395,0.02295970486226688
8,428,0.0275599665868107
9,269,0.03561272343683009
10,315,0.055834784162549056
11,396,0.1425747067184069
12,144,0.1524029020555768
13,367,0.17167569512557287
14,314,0.18229005254802166
15,333,0.18296165723728494
16,375,0.21279579958293054
17,339,0.24286605709359171
18,208,0.24671451611008793
19,191,0.32334138326916345
20,138,0.32919060224447166
21,399,0.34344016016856377
22,137,0.3914216007671249
23,189,0.4478817193211201
24,313,0.5157675557576238
25,175,0.5388823921895007
26,311,0.7486543424628856
27,317,0.7538578752301531
28,412,0.7753232379006554
29,254,0.8576926751428058
30,312,1.144087387306365
31,380,1.5216356632593888
32,300,1.7284019318512025
33,99,1.974384061231309
34,400,2.3159380353490797
35,378,2.7138564689246185
36,51,3.1014100640229505
37,285,3.7324708481108266
38,238,4.124840198125472
39,179,4.663728214348513
40,365,4.965971557313351
41,185,5.233283317035819
42,169,5.453232967727714
43,159,5.669324775444218
44,352,5.7505212328586826
45,309,5.966403014404253
46,329,5.968461108800595
47,353,6.404112136254592
48,166,6.819091284684255
49,173,7.161922455751102
50,310,8.017828415340695
51,369,8.281802950293251
52,360,9.820636959387429
53,306,10.193016263573108
54,146,11.124688049732688
55,97,12.693272897506878
56,409,12.746134266854572
57,209,13.52234010299805
58,143,13.813877445147073
59,206,14.28073720917277
60,229,16.071236394454353
61,50,17.467931681719765
62,319,17.68078559177837
63,237,17.688548479897594
64,336,20.151972513516853
65,239,21.80913342109085
66,355,22.70231586184092
67,349,23.078411556584257
68,342,23.20159226371294
69,222,23.60716088057543
70,190,24.196931736909058
71,139,25.284968667926055
72,308,25.349740965504797
73,341,26.559737097787462
74,140,26.872926655389772
75,249,27.334158904405847
76,172,30.636497176219546
77,318,30.794881565094546
78,180,35.87138596588167
79,183,38.68311339252478
80,174,38.8919940791809
81,177,42.045232165588864
82,157,42.67683530786314
83,351,43.19124064711419
84,379,53.988694268549416
85,294,57.17960497802809
86,163,58.27811335107062
87,368,69.52984968258404
88,149,81.75007525616584
89,373,84.13410596935626
90,158,84.40345951161726
91,299,85.35419557945039
92,147,86.21768079798794
93,361,93.20136421666874
94,165,108.6243293627019
95,211,116.08486557114747
96,337,119.87974035743493
97,346,125.29443231206716
98,420,126.05672928513135
99,358,130.79051329284206
100,366,132.45092230320358
101,363,145.115718530718
102,419,153.3876328106802
103,398,155.64804160306048
104,350,171.255697233698
105,338,174.40058176340628
106,418,178.86712537940738
107,141,183.23736027006117
108,408,191.64358586402145
109,305,196.99133100005102
110,230,210.18781915313932
111,388,211.98972354524554
112,413,236.78244974224086
113,370,239.53266735525878
114,417,252.58520131125476
115,376,255.09866766855717
116,359,294.65478494127194
117,286,322.8422936179929
118,332,385.26948759744135
119,410,405.3471911182199
120,354,425.4886725498945
121,295,450.9832344564594
122,231,456.8222941997941
123,382,488.56960458852706
124,170,491.8914535406076
125,387,528.9520619921394
126,176,550.5349215073613
127,227,565.6946985975052
128,260,582.6172545167012
129,377,583.4758429957799
130,217,599.5695596662815
131,372,606.0190457976457
132,171,615.3670272665248
133,212,650.1272843928413
134,262,672.9588794886054
135,278,681.7229726754667
136,219,700.6673309535444
137,386,722.9190727097166
138,298,750.3492767702526
139,152,764.5328793998913
140,259,800.3863576553367
141,327,858.82118400167
142,415,958.7823026390197
143,284,974.9798402222282
144,392,989.9171256603105
145,257,992.7535486009091
146,406,1012.513990664484
147,411,1167.6485941766998
148,393,1178.8313610509156
149,289,1182.2293892386053
150,153,1221.1950128140988
151,421,1235.758449093023
152,273,1328.165556872876
153,303,1344.5573992916952
154,184,1418.7176122546584
155,240,1531.670721968482
156,322,1631.7483114378497
157,268,1648.8142101102792
158,156,1667.902016615116
159,154,1693.244761519122
160,279,1775.982099905714
161,155,1820.3123827913844
162,356,1868.5511269023755
163,142,1893.3526290447176
164,145,1905.037255449931
165,389,1963.8158482164254
166,250,2058.237003626731
167,401,2098.9821768239067
168,347,2151.1513665979114
169,228,2172.9647076445854
170,405,2188.638812930195
171,167,2381.2537215002026
172,344,2432.744658932364
173,288,2462.6848792293486
174,404,2525.876888023925
175,402,2568.658528098826
176,182,2621.8459332511407
177,325,2813.1763776523235
178,291,2844.483767548892
179,214,2852.4264506627974
180,253,2965.787897865118
181,407,3010.51929303518
182,328,3148.4290781224895
183,383,3273.9542481938283
184,162,3352.2859780485155
185,181,3427.7183547058075
186,293,3467.4348179064436
187,200,3540.5424443717407
188,178,3715.5813708862634
189,233,3756.086455356874
190,199,3828.792979944605
191,243,4014.7303514121622
192,331,4080.922930779713
193,207,4629.717466743808
194,334,4760.355729096221
195,197,5114.0802438190985
196,290,5295.392338623906
197,323,5374.897127858619
198,307,5592.082820167411
199,221,5619.102706424815
200,242,5720.443093130407
201,271,6424.74295367047
202,274,6586.416195333371
203,248,6768.7397475646585
204,215,7386.2795373842155
205,357,7440.694424894238
206,381,7466.402820489173
207,210,7618.755845789518
208,198,7796.282992170162
209,270,7844.077901826582
210,423,7858.0361277776865
211,362,7961.423410851943
212,263,7975.642663098424
213,320,8106.199789169385
214,256,8174.935458163184
215,277,8368.478187271716
216,384,8569.65370978746
217,275,8771.767917490706
218,414,9644.70592711984
219,251,9804.836248251184
220,201,10092.589388082564
221,203,10158.22756219821
222,204,10228.859146438112
223,391,10309.118200946708
224,150,10384.503039532661
225,321,10465.10065570066
226,205,11130.779746791579
227,261,11452.754566674643
228,202,11779.872313128588
229,246,12228.396042233715
230,164,12406.40506110823
231,324,12478.197550059373
232,287,12808.63599767913
233,245,14186.3856461847
234,194,14724.271226152976
235,161,14995.101470100479
236,258,15960.380821560151
237,213,16346.963651436261
238,225,16662.52566315388
239,151,16808.55734427297
240,244,16823.322498078487
241,224,17281.973126230438
242,403,17395.41306694791
243,292,17642.354953370257
244,416,17898.730753787953
245,19,17922.53932044143
246,394,18091.56988654062
247,264,18141.802209052614
248,302,18800.007167165066
249,100,20115.74764291113
250,241,20831.164661083207
251,304,20944.30851056527
252,374,21620.485493617285
253,335,22046.799788394586
254,283,22717.604098395186
255,272,23037.411764755427
256,390,23432.671542584067
257,326,23747.498766953515
258,276,25340.103408130133
259,265,25980.38189743952
260,280,27955.292167703785
261,192,28340.389113353805
262,168,28728.450836834632
263,267,30243.14654967588
264,385,32913.56415558171
265,266,34355.16110608566
266,193,34588.44578901027
267,345,34627.22888791423
268,216,38115.24378129275
269,195,38426.83108423291
270,281,39021.68867728538
271,196,39795.8818956806
272,236,41352.311319351305
273,282,43610.65357580815
274,424,47430.99813715368
275,232,48606.916743881826
276,247,49469.6087908277
277,88,49952.45934803936
278,223,56087.4224984458
279,234,56342.320256341154
280,422,58025.685436609165
281,371,64169.37018710884
282,301,74191.39797459207
283,226,74666.02546361429
284,330,75290.21769573643
285,235,78617.1012410146
286,252,107488.17454194593
287,148,136640.16632417587
288,340,143784.74341001242
289,397,155609.83086532934
290,425,161260.52646375683
291,297,161601.56994029364
292,220,169727.85290526345
293,296,170303.66106155657
294,129,189059.2517747073
295,255,323087.1526957118
296,218,365249.93377522007
297,429,437119.9673112392
298,426,12152377.910008376
299,76,65307957.57327412
300,52,757721286.6506327
301,110,1393533789.6971142
302,113,5281598006.026242
303,55,8032387231.181478
304,77,11246448736.616396
305,79,11677444320.18412
306,105,13654864711.29499
307,120,14178703615.713589
308,89,15167944069.47559
309,109,16314875517.765514
310,430,16466796101.23571
311,43,25458568252.280247
312,127,26589708538.453014
313,128,30999682599.566338
314,431,32275798871.11836
315,40,35185680544.6922
316,20,37882593232.12801
317,187,43678639643.08967
318,62,73180091106.78099
319,117,73330200486.11537
320,60,89817907417.91133
321,30,95927924878.84108
322,70,103818841910.35236
323,78,109471563810.23653
324,69,118223943696.30267
325,130,126352819569.94456
326,112,146220176946.081
327,10,155386210585.82318
328,119,239338701290.89636
329,17,266410197793.06985
330,57,322168808311.6666
331,35,355075235210.76697
332,90,389632391209.5058
333,31,393579073505.48376
334,81,444614016976.89435
335,75,447635844414.617
336,39,468442950160.936
337,111,569724864706.6315
338,108,677594714801.3186
339,124,696484398735.8398
340,54,849285363145.947
341,37,1165002097723.1658
342,7,1194942829394.5098
343,135,1380534473140.8596
344,2,1697655269569.3816
345,80,2710690156328.552
346,94,2944929879791.438
347,67,3710872103422.2544
348,186,7937220666531.464
349,93,8214065581862.211
350,41,20535009312549.63
351,4,25388001972476.21
352,9,34693568068489.4
353,28,35519405423352.55
354,106,51985990063477.36
355,133,59128343365864.336
356,14,182165890508956.3
357,66,217038262483376.66
358,56,288452137202415.56
359,188,300794089487501.44
360,87,408701570967144.56
361,5,497120979374338.56
362,21,620560142743918.8
363,104,688370155355775.4
364,85,705295179909101.2
365,107,1014042722537903.5
366,6,1129126714516941.0
367,86,1438842594602867.8
368,11,1748885303780780.2
369,134,2047789518082927.5
370,65,2203740558601171.8
371,98,2406744900492048.5
372,24,2497768992714926.0
373,73,2504126759738187.0
374,118,2734745066944894.0
375,3,2780217241813238.5
376,63,2890457730547612.0
377,84,4071997439017687.5
378,34,4200092797189329.0
379,83,4652120237236845.0
380,132,6171930296433540.0
381,91,6308455323657096.0
382,96,6627375507999101.0
383,18,1.0558780181297958e+16
384,103,1.0686518925751472e+16
385,32,1.2116455079059308e+16
386,82,1.5353066434328926e+16
387,64,1.8010608718678222e+16
388,44,2.1580637732672024e+16
389,22,2.8868509944615964e+16
390,95,3.1551064325279012e+16
391,71,3.2435899795137212e+16
392,101,3.765902737399936e+16
393,126,3.826843041027048e+16
394,121,4.5736792852772216e+16
395,102,4.871624544100183e+16
396,92,4.880128845136052e+16
397,68,5.597784022586165e+16
398,114,8.604226418377178e+16
399,23,1.0236636905469842e+17
400,116,1.7234066958314e+17
401,15,2.0002468620701712e+17
402,45,2.0453128680901814e+17
403,26,2.1299164945066035e+17
404,74,2.1811193595836368e+17
405,136,2.5129325449177e+17
406,122,2.6263114936137603e+17
407,48,2.7194209563149133e+17
408,12,3.264841706668359e+17
409,53,3.2996465111011085e+17
410,33,3.572988351096241e+17
411,115,4.263615124138288e+17
412,125,4.720128925090332e+17
413,25,8.786036423707009e+17
414,131,9.145677534298193e+17
415,27,9.737263467101152e+17
416,13,1.5385071347997489e+18
417,42,1.7382876652884388e+18
418,8,1.8277827988250831e+18
419,123,1.928596276574288e+18
420,47,1.9483828722841196e+18
421,72,1.983449546368136e+18
422,46,2.02874581308783e+18
423,29,4.1495087272259676e+18
424,49,4.2520434159428547e+18
425,58,7.183815581106055e+18
426,16,7.772171507331834e+18
427,59,8.199621890328044e+18
428,61,4.881555822761194e+19
429,38,4.9155243189355586e+19
430,36,1.4792405006911757e+20
